<svg xmlns="http://www.w3.org/2000/svg" width="5.94" height="8.89" viewBox="0 0 5.94 8.89">
  <title>icon-slick-play-white</title>
  <g id="Layer_2" data-name="Layer 2">
    <g id="Guides">
      <path d="M.89.12,5.74,4a.55.55,0,0,1,0,.85L.89,8.77A.55.55,0,0,1,0,8.34V.55A.55.55,0,0,1,.89.12Z" fill="#fff"/>
    </g>
  </g>
</svg>
