<svg xmlns="http://www.w3.org/2000/svg" width="14.4" height="14.4" viewBox="0 0 14.4 14.4">
  <title>icon-phone-md</title>
  <g id="Layer_2" data-name="Layer 2">
    <g id="Guides">
      <path d="M13.9.7l.4.2a.8.8,0,0,1,.1.4,13.5,13.5,0,0,1-1.7,6.6,13.8,13.8,0,0,1-4.8,4.8,13.5,13.5,0,0,1-6.6,1.7H.9a.5.5,0,0,1-.2-.4L0,11a.9.9,0,0,1,.1-.5l.3-.3L3.6,8.8H4l.4.2,1.3,1.7a10.5,10.5,0,0,0,3-2,12.1,12.1,0,0,0,2-3L9,4.4c-.1-.2-.1-.3-.2-.4V3.6L10.2.4l.3-.3H11Z" fill="#E50914"/>
    </g>
  </g>
</svg>
