<svg xmlns="http://www.w3.org/2000/svg" width="223.8" height="53.1" viewBox="0 0 223.8 53.1">
  <title>blick-logo</title>
  <g id="Layer_2" data-name="Layer 2">
    <g id="Guides">
      <g>
        <path d="M0,.9H23.8c5.9,0,10.5,1.6,13.5,4.5a12.1,12.1,0,0,1,3.5,8.8h0c0,5.8-3.1,9-6.8,11.1,6,2.3,9.6,5.7,9.6,12.6h0c0,9.4-7.6,14.1-19.2,14.1H0ZM21.4,21.6c5,0,8.2-1.6,8.2-5.4h0c0-3.4-2.7-5.3-7.4-5.3H11V21.6Zm3,20.7c5,0,8-1.7,8-5.5v-.2c0-3.4-2.5-5.6-8.3-5.6H11V42.3Z" fill="#231f20"/>
        <path d="M53,.9H64.2V42H89.9V52.2H53Z" fill="#231f20"/>
        <path d="M98.9.9h11.3V52.2H98.9Z" fill="#231f20"/>
        <path d="M120.7,26.7h0C120.7,12,131.7,0,147.5,0c9.7,0,15.5,3.2,20.2,7.9l-7.1,8.3c-4-3.6-8-5.8-13.2-5.8-8.6,0-14.9,7.2-14.9,16v.2c0,8.8,6.1,16.1,14.9,16.1,5.9,0,9.5-2.4,13.5-6l7.2,7.2c-5.3,5.7-11.1,9.2-21,9.2A26,26,0,0,1,120.7,26.7Z" fill="#231f20"/>
        <path d="M177.1.9h11.3V23.3L209.3.9h13.6L202,22.7l21.8,29.5H210.3L194.4,30.4l-6,6.1V52.2H177.1Z" fill="#231f20"/>
      </g>
    </g>
  </g>
</svg>
